4.9,3.0,1.4,0.2,-1
4.6,3.4,1.4,0.3,-1
4.3,3.0,1.1,0.1,-1
5.7,4.4,1.5,0.4,-1
5.1,3.8,1.5,0.3,-1
5.4,3.4,1.7,0.2,-1
5.1,3.3,1.7,0.5,-1
5.2,4.1,1.5,0.1,-1
5.1,3.8,1.9,0.4,-1
4.8,3.0,1.4,0.3,-1
6.4,3.2,4.5,1.5,0
5.7,2.6,3.5,1.0,0
6.1,3.0,4.6,1.4,0
5.8,2.7,5.1,1.9,1
6.8,3.0,5.5,2.1,1
7.7,2.8,6.7,2.0,1
6.7,3.3,5.7,2.1,1
7.4,2.8,6.1,1.9,1
6.7,3.0,5.2,2.3,1
5.9,3.0,5.1,1.8,1